<svg width="84" height="84" viewBox="0 0 84 84" fill="none" xmlns="http://www.w3.org/2000/svg">
    <path fill-rule="evenodd" clip-rule="evenodd" d="M18.64 12.5445C18.9991 12.0639 19.4597 11.6748 19.9865 11.4071C20.5133 11.1394 21.0923 11.0001 21.6791 11H60.3209C60.9077 11.0001 61.4867 11.1394 62.0135 11.4071C62.5403 11.6748 63.0009 12.0639 63.36 12.5445L81.1947 36.4282C81.7749 37.2037 82.0581 38.1738 81.99 39.1524C81.9219 40.131 81.5073 41.049 80.8257 41.7304L43.6701 78.8828C42.9535 79.5994 41.9962 80 41 80C40.0038 80 39.0465 79.5994 38.3299 78.8828L1.17433 41.7304C0.492701 41.049 0.0780504 40.131 0.00994982 39.1524C-0.0581507 38.1738 0.225096 37.2037 0.805334 36.4282L18.64 12.5445ZM23.5651 18.9612L8.98981 38.4769L41 70.481L73.0102 38.4769L58.4349 18.9612H23.5651Z" fill="#2BF0CD"/>
    </svg>
    